{
 "name": "custom html assessments",
 "children": [
  {
   "title": "Page 1",
   "id": "2e9b1c92-848d-f983-7a6f-2007d4c72746",
   "pageId": "2e9b1c92-848d-f983-7a6f-2007d4c72746",
   "type": "page"
  },
  {
   "title": "Page 2",
   "id": "dddf80c1-02e6-6d4b-635b-081008173671",
   "pageId": "dddf80c1-02e6-6d4b-635b-081008173671",
   "type": "page"
  }
 ]
}